<?xml version="1.0" encoding="UTF-8" standalone="no"?>
<svg xmlns="http://www.w3.org/2000/svg" xmlns:xlink="http://www.w3.org/1999/xlink" contentStyleType="text/css" height="166px" preserveAspectRatio="none" style="width:108px;height:166px;background:#FFFFFF;" version="1.1" viewBox="0 0 108 166" width="108px" zoomAndPan="magnify"><defs/><g><!--MD5=[09ce52be0ee7de43c61b6e2d59bf108b]
class Person--><g id="elem_Person"><rect codeLine="1" fill="#F1F1F1" height="145.7813" id="Person" rx="2.5" ry="2.5" style="stroke:#181818;stroke-width:0.5;" width="87" x="7" y="7"/><ellipse cx="24.7" cy="23" fill="#ADD1B2" rx="11" ry="11" style="stroke:#181818;stroke-width:1.0;"/><path d="M27.0438,18.6719 C26.1063,18.2344 25.5125,18.0938 24.6375,18.0938 C22.0125,18.0938 20.0125,20.1719 20.0125,22.8906 L20.0125,24.0156 C20.0125,26.5938 22.1219,28.4844 25.0125,28.4844 C26.2313,28.4844 27.3875,28.1875 28.1375,27.6406 C28.7156,27.2344 29.0438,26.7813 29.0438,26.3906 C29.0438,25.9375 28.6531,25.5469 28.1844,25.5469 C27.9656,25.5469 27.7625,25.625 27.575,25.8125 C27.1219,26.2969 27.1219,26.2969 26.9344,26.3906 C26.5125,26.6563 25.825,26.7813 25.0594,26.7813 C23.0125,26.7813 21.7156,25.6875 21.7156,23.9844 L21.7156,22.8906 C21.7156,21.1094 22.9656,19.7969 24.7,19.7969 C25.2781,19.7969 25.8875,19.9531 26.3563,20.2031 C26.8406,20.4844 27.0125,20.7031 27.1063,21.1094 C27.1688,21.5156 27.2,21.6406 27.3406,21.7656 C27.4813,21.9063 27.7156,22.0156 27.9344,22.0156 C28.2,22.0156 28.4656,21.875 28.6375,21.6563 C28.7469,21.5 28.7781,21.3125 28.7781,20.8906 L28.7781,19.4688 C28.7781,19.0313 28.7625,18.9063 28.6688,18.75 C28.5125,18.4844 28.2313,18.3438 27.9344,18.3438 C27.6375,18.3438 27.4344,18.4375 27.2156,18.75 L27.0438,18.6719 Z " fill="#000000"/><text fill="#000000" font-family="sans-serif" font-size="14" lengthAdjust="spacing" textLength="49" x="39.3" y="27.8467">Person</text><line style="stroke:#181818;stroke-width:0.5;" x1="8" x2="93" y1="39" y2="39"/><line style="stroke:#181818;stroke-width:0.5;" x1="8" x2="93" y1="47" y2="47"/><text fill="#000000" font-family="sans-serif" font-size="14" lengthAdjust="spacing" textLength="75" x="13" y="63.9951">usecase1()</text><text fill="#000000" font-family="sans-serif" font-size="14" lengthAdjust="spacing" textLength="74" x="13" y="80.292">usecase2()</text><text fill="#000000" font-family="sans-serif" font-size="14" lengthAdjust="spacing" textLength="75" x="13" y="96.5889">usecase3()</text><text fill="#000000" font-family="sans-serif" font-size="14" lengthAdjust="spacing" textLength="74" x="13" y="112.8857">usecase4()</text><text fill="#000000" font-family="sans-serif" font-size="14" lengthAdjust="spacing" textLength="75" x="13" y="129.1826">usecase5()</text><text fill="#000000" font-family="sans-serif" font-size="14" lengthAdjust="spacing" textLength="75" x="13" y="145.4795">usecase6()</text></g><!--MD5=[2abdc2c10b4492c69fecb16949e8ad77]
@startuml
class Person
Person : usecase1()
Person : usecase2()
Person : usecase3()
Person : usecase4()
Person : usecase5()
Person : usecase6()
@enduml

PlantUML version 1.2022.13beta2(Unknown compile time)
(GPL source distribution)
Java Runtime: Java(TM) SE Runtime Environment
JVM: Java HotSpot(TM) 64-Bit Server VM
Default Encoding: UTF-8
Language: en
Country: US
--></g></svg>